…
``` r
df %>%
  mutate(C = A + B)
```

For example, we can convert body mass to kilograms:

``` r
penguins %>%
  mutate(body_mass_kg = body_mass_g / 1000)
```

    # A tibble: 344 × 9
       species island    bill_length_mm bill_depth_mm flipper_length_mm body_mass_g
       <fct>   <fct>              <dbl>         <dbl>             <int>       <int>
     1 Adelie  Torgersen           39.1          18.7               181        3750
     2 Adelie  Torgersen           39.5          17.4               186        3800
     3 Adelie  Torgersen           40.3          18                 195        3250
     4 Adelie  Torgersen           NA            NA                  NA          NA
     5 Adelie  Torgersen           36.7          19.3               193        3450
     6 Adelie  Torgersen           39.3          20.6               190        3650
     7 Adelie  Torgersen           38.9          17.8               181        3625
     8 Adelie  Torgersen           39.2          19.6               195        4675
     9 Adelie  Torgersen           34.1          18.1               193        3475
    10 Adelie  Torgersen           42            20.2               190        4250
    # … with 334 more rows, and 3 more variables: sex <fct>, year <int>,
    #   body_mass_kg <dbl>

Notice that for some variables we have `NA` listed for missing values.
We can use `drop_na()` to remove the missing values from those variables

``` r
penguins %>% 
  drop_na() #if we leave it blank it will remove any row with an NA
```

    # A tibble: 333 × 8
       species island    bill_length_mm bill_depth_mm flipper_length_mm body_mass_g
       <fct>   <fct>              <dbl>         <dbl>             <int>       <int>
     1 Adelie  Torgersen           39.1          18.7               181        3750
     2 Adelie  Torgersen           39.5          17.4               186        3800
     3 Adelie  Torgersen           40.3          18                 195        3250
     4 Adelie  Torgersen           36.7          19.3               193        3450
     5 Adelie  Torgersen           39.3          20.6               190        3650
     6 Adelie  Torgersen           38.9          17.8               181        3625
     7 Adelie  Torgersen           39.2          19.6               195        4675
     8 Adelie  Torgersen           41.1          17.6               182        3200
     9 Adelie  Torgersen           38.6          21.2               191        3800
    10 Adelie  Torgersen           34.6          21.1               198        4400
    # … with 323 more rows, and 2 more variables: sex <fct>, year <int>

``` r
penguins %>% 
  drop_na(sex) #adding a variable, removes rows with NA just for that variable
```

    # A tibble: 333 × 8
       species island    bill_length_mm bill_depth_mm flipper_length_mm body_mass_g
       <fct>   <fct>              <dbl>         <dbl>             <int>       <int>
     1 Adelie  Torgersen           39.1          18.7               181        3750
     2 Adelie  Torgersen           39.5          17.4               186        3800
     3 Adelie  Torgersen           40.3          18                 195        3250
     4 Adelie  Torgersen           36.7          19.3               193        3450
     5 Adelie  Torgersen           39.3          20.6               190        3650
     6 Adelie  Torgersen           38.9          17.8               181        3625
     7 Adelie  Torgersen           39.2          19.6               195        4675
     8 Adelie  Torgersen           41.1          17.6               182        3200
     9 Adelie  Torgersen           38.6          21.2               191        3800
    10 Adelie  Torgersen           34.6          21.1               198        4400
    # … with 323 more rows, and 2 more variables: sex <fct>, year <int>

### Evaluating the Bill Size

Create new variable called `bill_ratio` that is the ratio of length to
depth (length/depth)

``` r
penguins %>% 
  mutate(bill_ratio = bill_length_mm/bill_depth_mm)
```

    # A tibble: 344 × 9
       species island    bill_length_mm bill_depth_mm flipper_length_mm body_mass_g
       <fct>   <fct>              <dbl>         <dbl>             <int>       <int>
     1 Adelie  Torgersen           39.1          18.7               181        3750
     2 Adelie  Torgersen           39.5          17.4               186        3800
     3 Adelie  Torgersen           40.3          18                 195        3250
     4 Adelie  Torgersen           NA            NA                  NA          NA
     5 Adelie  Torgersen           36.7          19.3               193        3450
     6 Adelie  Torgersen           39.3          20.6               190        3650
     7 Adelie  Torgersen           38.9          17.8               181        3625
     8 Adelie  Torgersen           39.2          19.6               195        4675
     9 Adelie  Torgersen           34.1          18.1               193        3475
    10 Adelie  Torgersen           42            20.2               190        4250
    # … with 334 more rows, and 3 more variables: sex <fct>, year <int>,
    #   bill_ratio <dbl>
…
Add three new columns to penguins within one `mutate()` function: one
column that contains the bill ratio (bill length / bill depth), one that
contains the body mass converted to kg, and one that contains the
flipper length converted to meters.

``` r
penguins %>%
  mutate(bill_ratio = bill_length_mm/bill_depth_mm,
         body_mass_kg = body_mass_g/1000,
         flipper_length_m = flipper_length_mm/1000)
```

    # A tibble: 344 × 11
       species island    bill_length_mm bill_depth_mm flipper_length_mm body_mass_g
       <fct>   <fct>              <dbl>         <dbl>             <int>       <int>
     1 Adelie  Torgersen           39.1          18.7               181        3750
     2 Adelie  Torgersen           39.5          17.4               186        3800
     3 Adelie  Torgersen           40.3          18                 195        3250
     4 Adelie  Torgersen           NA            NA                  NA          NA
     5 Adelie  Torgersen           36.7          19.3               193        3450
     6 Adelie  Torgersen           39.3          20.6               190        3650
     7 Adelie  Torgersen           38.9          17.8               181        3625
     8 Adelie  Torgersen           39.2          19.6               195        4675
     9 Adelie  Torgersen           34.1          18.1               193        3475
    10 Adelie  Torgersen           42            20.2               190        4250
    # … with 334 more rows, and 5 more variables: sex <fct>, year <int>,
    #   bill_ratio <dbl>, body_mass_kg <dbl>, flipper_length_m <dbl>
…
Starting with penguins, create a summary table containing the maximum
and minimum length of flippers (call the columns flip_max and flip_min)
for just Chinstrap penguins, grouped by island. (Hint - remember
`filter()`)

``` r
penguins %>% 
  filter(species == "Chinstrap") %>% 
  mutate(flip_min = min(flipper_length_mm, na.rm = TRUE), flip_max = max(flipper_length_mm, na.rm = TRUE)) %>% 
  select(island, flip_min, flip_max) %>% 
  arrange(island)
```

    # A tibble: 68 × 3
       island flip_min flip_max
       <fct>     <int>    <int>
     1 Dream       178      212
     2 Dream       178      212
     3 Dream       178      212
     4 Dream       178      212
     5 Dream       178      212
     6 Dream       178      212
     7 Dream       178      212
     8 Dream       178      212
     9 Dream       178      212
    10 Dream       178      212
    # … with 58 more rows
…
``` r
penguins %>% 
  mutate(bill_ratio = bill_length_mm/bill_depth_mm) %>% 
  select(species, bill_ratio) %>% 
  arrange(species) %>% 
  mutate(bill_ratio_mean = mean(bill_ratio, na.rm = TRUE)) 
```

    # A tibble: 344 × 3
       species bill_ratio bill_ratio_mean
       <fct>        <dbl>           <dbl>
     1 Adelie        2.09            2.61
     2 Adelie        2.27            2.61
     3 Adelie        2.24            2.61
     4 Adelie       NA               2.61
     5 Adelie        1.90            2.61
     6 Adelie        1.91            2.61
     7 Adelie        2.19            2.61
     8 Adelie        2               2.61
     9 Adelie        1.88            2.61
    10 Adelie        2.08            2.61
    # … with 334 more rows
…
Bonus Point: The names in the resulting table should be the original
column name followed by an underscore, then the word “median”
(e.g. colname_median).

``` r
penguins %>% 
  group_by(island) %>% 
  summarise(across(contains("mm")))
```

    `summarise()` has grouped output by 'island'. You can override using the
    `.groups` argument.

    # A tibble: 344 × 4
    # Groups:   island [3]
       island bill_length_mm bill_depth_mm flipper_length_mm
       <fct>           <dbl>         <dbl>             <int>
     1 Biscoe           37.8          18.3               174
     2 Biscoe           37.7          18.7               180
     3 Biscoe           35.9          19.2               189
     4 Biscoe           38.2          18.1               185
     5 Biscoe           38.8          17.2               180
     6 Biscoe           35.3          18.9               187
     7 Biscoe           40.6          18.6               183
     8 Biscoe           40.5          17.9               187
     9 Biscoe           37.9          18.6               172
    10 Biscoe           40.5          18.9               180
    # … with 334 more rows
…
``` r
penguins %>%
  mutate(size_bin = case_when(
      body_mass_g > 4500 ~ "large",
      body_mass_g > 3000 & body_mass_g <= 4500 ~ "medium",
      body_mass_g <= 3000 ~ "small"
    )
  )
```

    # A tibble: 344 × 9
       species island    bill_length_mm bill_depth_mm flipper_length_mm body_mass_g
       <fct>   <fct>              <dbl>         <dbl>             <int>       <int>
     1 Adelie  Torgersen           39.1          18.7               181        3750
     2 Adelie  Torgersen           39.5          17.4               186        3800
     3 Adelie  Torgersen           40.3          18                 195        3250
     4 Adelie  Torgersen           NA            NA                  NA          NA
     5 Adelie  Torgersen           36.7          19.3               193        3450
     6 Adelie  Torgersen           39.3          20.6               190        3650
     7 Adelie  Torgersen           38.9          17.8               181        3625
     8 Adelie  Torgersen           39.2          19.6               195        4675
     9 Adelie  Torgersen           34.1          18.1               193        3475
    10 Adelie  Torgersen           42            20.2               190        4250
    # … with 334 more rows, and 3 more variables: sex <fct>, year <int>,
    #   size_bin <chr>
…
Identify what is going on in this code:

``` r
penguins %>%
  select(species, year, flipper_length_mm) %>%  #Select specific columns
  rename(study_year = year) %>%   #rename "year" to "study_year"
  filter(species == "Adelie") %>%  #Only keep Adelie penguins
  mutate(flipper_rank = case_when(   #Create "flipper_rank" column
    flipper_length_mm < 200 ~ 1,   #if length is less than 200, rank as "1"
    flipper_length_mm >= 200 ~ 2,  #if length is more than or equal to 200, rank as "2"
    TRUE ~ 0 # 0 for anything else
  ))
```

    # A tibble: 152 × 4
       species study_year flipper_length_mm flipper_rank
       <fct>        <int>             <int>        <dbl>
     1 Adelie        2007               181            1
     2 Adelie        2007               186            1
     3 Adelie        2007               195            1
     4 Adelie        2007                NA            0
     5 Adelie        2007               193            1
     6 Adelie        2007               190            1
     7 Adelie        2007               181            1
     8 Adelie        2007               195            1
     9 Adelie        2007               193            1
    10 Adelie        2007               190            1
    # … with 142 more rows
…
-   “Year 1” if the year is 2007  
-   “Year 2” if the year is 2008  
-   “Year 3” if the year is 2009

``` r
penguins %>% 
  mutate(study_year = case_when(
    year == 2007 ~ "Year 1",
    year == 2008 ~ "Year 2",
    year == 2009 ~ "Year 3"
  ))
```

    # A tibble: 344 × 9
       species island    bill_length_mm bill_depth_mm flipper_length_mm body_mass_g
       <fct>   <fct>              <dbl>         <dbl>             <int>       <int>
     1 Adelie  Torgersen           39.1          18.7               181        3750
     2 Adelie  Torgersen           39.5          17.4               186        3800
     3 Adelie  Torgersen           40.3          18                 195        3250
     4 Adelie  Torgersen           NA            NA                  NA          NA
     5 Adelie  Torgersen           36.7          19.3               193        3450
     6 Adelie  Torgersen           39.3          20.6               190        3650
     7 Adelie  Torgersen           38.9          17.8               181        3625
     8 Adelie  Torgersen           39.2          19.6               195        4675
     9 Adelie  Torgersen           34.1          18.1               193        3475
    10 Adelie  Torgersen           42            20.2               190        4250
    # … with 334 more rows, and 3 more variables: sex <fct>, year <int>,
    #   study_year <chr>
…
``` r
penguins %>% 
  filter(species == "Chinstrap") %>% 
  select(flipper_length_mm, body_mass_g) %>% 
  mutate(fm_ratio = flipper_length_mm/body_mass_g) %>% 
  mutate(ratio_bin = case_when(
    fm_ratio >= 0.05 ~ "high",
    fm_ratio < 0.05 ~ "low",
    TRUE ~ "no record"
  ))
```

    # A tibble: 68 × 4
       flipper_length_mm body_mass_g fm_ratio ratio_bin
                   <int>       <int>    <dbl> <chr>    
     1               192        3500   0.0549 high     
     2               196        3900   0.0503 high     
     3               193        3650   0.0529 high     
     4               188        3525   0.0533 high     
     5               197        3725   0.0529 high     
     6               198        3950   0.0501 high     
     7               178        3250   0.0548 high     
     8               197        3750   0.0525 high     
     9               195        4150   0.0470 low      
    10               198        3700   0.0535 high     
    # … with 58 more rows
…
2.  Code

``` r
penguins %>% 
  mutate(bill_ratio = bill_length_mm/bill_depth_mm) %>% 
  mutate(hits = case_when(
    bill_ratio >= 0.05 ~ "yes",
    TRUE ~ "no"
  )) %>% 
  filter(hits == "yes") %>% 
  select(species, sex, bill_ratio) %>% 
  arrange(desc(bill_ratio))
```

    # A tibble: 342 × 3
       species sex    bill_ratio
       <fct>   <fct>       <dbl>
     1 Gentoo  male         3.61
     2 Gentoo  male         3.51
     3 Gentoo  male         3.51
     4 Gentoo  female       3.49
     5 Gentoo  male         3.46
     6 Gentoo  female       3.45
     7 Gentoo  female       3.45
     8 Gentoo  female       3.44
     9 Gentoo  male         3.44
    10 Gentoo  male         3.44
    # … with 332 more rows
…
